{
 "content": null,
 "creation": "2019-10-03 23:20:34.620059",
 "docstatus": 0,
 "doctype": "Page",
 "icon": "fa fa-user",
 "idx": 0,
 "modified": "2019-12-16 09:31:30.136284",
 "modified_by": "Administrator",
 "module": "SLAIMS",
 "name": "profile-page",
 "owner": "Administrator",
 "page_name": "Profile Page",
 "roles": [],
 "script": null,
 "standard": "Yes",
 "style": null,
 "system_page": 0,
 "title": "Profile Page"
}